{
    "chmod": "0755",
    "output": "marvin.phar",
    "finder": [
        {
            "name": "*.php",
            "exclude": [
                "Tests",
                "tests",
                "test",
                "tags",
                "phpunit",
                "phpspec"
            ],
            "in": "vendor"
        }
    ],
    "files": [
        "bin/marvin",
        "composer.json.dist",
        "engine.params"
    ],
    "stub": true,
    "compactors": [
        "Herrera\\Box\\Compactor\\Php"
    ],
    "main": "bin/marvin",
    "directories": ["src", ".src", "app", "templates", "public"]
}
